{"label":"PERSON","pattern":[{"ENT_TYPE":"PER"},{"ORTH":","},{"ENT_TYPE":"PER"}]}
{"label":"PERSON","pattern":[{"ENT_TYPE":"MISC"},{"ORTH":",","OP":"!"}]}
{"label":"PERSON","pattern":[{"TEXT":{"REGEX":"\\w+"}},{"ORTH":","},{"ENT_TYPE":"PER"}]}
{"label":"PERSON","pattern":[{"ENT_TYPE":"PER","OP":"+"},{"IS_PUNCT":true,"OP":"?"},{"ORTH":"dit"},{"ENT_TYPE":"PER"}]}
{"label":"PERSON","pattern":[{"ENT_TYPE":"PER","OP":"+"},{"ORTH":","},{"ORTH":"pseudonyme"},{"IS_STOP":true,"OP":"?"},{"ORTH":"\u00ab","OP":"?"},{"TEXT":{"REGEX":"\\w+"}},{"ORTH":"\u00bb","OP":"?"}]}
{"label":"LOCATION","pattern":[{"ENT_TYPE":"LOC"},{"ORTH":"("},{"ENT_TYPE":"LOC"},{"ORTH":")"}]}
{"label":"LOCATION","pattern":[{"IS_DIGIT":true},{"IS_PUNCT":true},{"LOWER":"voie"},{"IS_STOP":true,"OP":"?"},{"TEXT":{"REGEX":"\\w+"}},{"SHAPE":"dddd","OP":"?"},{"ENT_TYPE":"LOC","OP":"?"}]}
{"label":"LOCATION","pattern":[{"IS_DIGIT":true},{"LOWER":"voie"},{"IS_STOP":true,"OP":"?"},{"TEXT":{"REGEX":"\\w+"}},{"SHAPE":"dddd","OP":"?"},{"ENT_TYPE":"LOC","OP":"?"}]}
{"label":"LOCATION","pattern":[{"SHAPE":"dd"},{"IS_PUNCT":true},{"LOWER":"voie"},{"IS_STOP":true,"OP":"?"},{"TEXT":{"REGEX":"\\w+"}},{"SHAPE":"dddd","OP":"?"},{"ENT_TYPE":"LOC","OP":"?"}]}
{"label":"LOCATION","pattern":[{"LOWER":"voie"},{"IS_STOP":true,"OP":"?"},{"TEXT":{"REGEX":"\\w+"}},{"ENT_TYPE":"LOC","OP":"?"}]}
{"label":"LOCATION","pattern":[{"IS_DIGIT":true},{"IS_PUNCT":true},{"LOWER":"rue"},{"IS_STOP":true,"OP":"?"},{"TEXT":{"REGEX":"\\w+"}},{"SHAPE":"dddd","OP":"?"},{"ENT_TYPE":"LOC","OP":"?"}]}
{"label":"LOCATION","pattern":[{"IS_DIGIT":true},{"LOWER":"rue"},{"IS_STOP":true,"OP":"?"},{"TEXT":{"REGEX":"\\w+"}},{"SHAPE":"dddd","OP":"?"},{"ENT_TYPE":"LOC","OP":"?"}]}
{"label":"LOCATION","pattern":[{"SHAPE":"dd"},{"IS_PUNCT":true},{"LOWER":"rue"},{"IS_STOP":true,"OP":"?"},{"TEXT":{"REGEX":"\\w+"}},{"SHAPE":"dddd","OP":"?"},{"ENT_TYPE":"LOC","OP":"?"}]}
{"label":"LOCATION","pattern":[{"LOWER":"rue"},{"IS_STOP":true,"OP":"?"},{"TEXT":{"REGEX":"\\w+"}},{"ENT_TYPE":"LOC","OP":"?"}]}
{"label":"LOCATION","pattern":[{"IS_DIGIT":true},{"IS_PUNCT":true},{"LOWER":"avenue"},{"IS_STOP":true,"OP":"?"},{"TEXT":{"REGEX":"\\w+"}},{"SHAPE":"dddd","OP":"?"},{"ENT_TYPE":"LOC","OP":"?"}]}
{"label":"LOCATION","pattern":[{"IS_DIGIT":true},{"LOWER":"avenue"},{"IS_STOP":true,"OP":"?"},{"TEXT":{"REGEX":"\\w+"}},{"SHAPE":"dddd","OP":"?"},{"ENT_TYPE":"LOC","OP":"?"}]}
{"label":"LOCATION","pattern":[{"SHAPE":"dd"},{"IS_PUNCT":true},{"LOWER":"avenue"},{"IS_STOP":true,"OP":"?"},{"TEXT":{"REGEX":"\\w+"}},{"SHAPE":"dddd","OP":"?"},{"ENT_TYPE":"LOC","OP":"?"}]}
{"label":"LOCATION","pattern":[{"LOWER":"avenue"},{"IS_STOP":true,"OP":"?"},{"TEXT":{"REGEX":"\\w+"}},{"ENT_TYPE":"LOC","OP":"?"}]}
{"label":"LOCATION","pattern":[{"IS_DIGIT":true},{"IS_PUNCT":true},{"LOWER":"boulevard"},{"IS_STOP":true,"OP":"?"},{"TEXT":{"REGEX":"\\w+"}},{"SHAPE":"dddd","OP":"?"},{"ENT_TYPE":"LOC","OP":"?"}]}
{"label":"LOCATION","pattern":[{"IS_DIGIT":true},{"LOWER":"boulevard"},{"IS_STOP":true,"OP":"?"},{"TEXT":{"REGEX":"\\w+"}},{"SHAPE":"dddd","OP":"?"},{"ENT_TYPE":"LOC","OP":"?"}]}
{"label":"LOCATION","pattern":[{"SHAPE":"dd"},{"IS_PUNCT":true},{"LOWER":"boulevard"},{"IS_STOP":true,"OP":"?"},{"TEXT":{"REGEX":"\\w+"}},{"SHAPE":"dddd","OP":"?"},{"ENT_TYPE":"LOC","OP":"?"}]}
{"label":"LOCATION","pattern":[{"LOWER":"boulevard"},{"IS_STOP":true,"OP":"?"},{"TEXT":{"REGEX":"\\w+"}},{"ENT_TYPE":"LOC","OP":"?"}]}
{"label":"LOCATION","pattern":[{"IS_DIGIT":true},{"IS_PUNCT":true},{"LOWER":"route"},{"IS_STOP":true,"OP":"?"},{"TEXT":{"REGEX":"\\w+"}},{"SHAPE":"dddd","OP":"?"},{"ENT_TYPE":"LOC","OP":"?"}]}
{"label":"LOCATION","pattern":[{"IS_DIGIT":true},{"LOWER":"route"},{"IS_STOP":true,"OP":"?"},{"TEXT":{"REGEX":"\\w+"}},{"SHAPE":"dddd","OP":"?"},{"ENT_TYPE":"LOC","OP":"?"}]}
{"label":"LOCATION","pattern":[{"SHAPE":"dd"},{"IS_PUNCT":true},{"LOWER":"route"},{"IS_STOP":true,"OP":"?"},{"TEXT":{"REGEX":"\\w+"}},{"SHAPE":"dddd","OP":"?"},{"ENT_TYPE":"LOC","OP":"?"}]}
{"label":"LOCATION","pattern":[{"LOWER":"route"},{"IS_STOP":true,"OP":"?"},{"TEXT":{"REGEX":"\\w+"}},{"ENT_TYPE":"LOC","OP":"?"}]}
{"label":"LOCATION","pattern":[{"IS_DIGIT":true},{"IS_PUNCT":true},{"LOWER":"all\u00e9e"},{"IS_STOP":true,"OP":"?"},{"TEXT":{"REGEX":"\\w+"}},{"SHAPE":"dddd","OP":"?"},{"ENT_TYPE":"LOC","OP":"?"}]}
{"label":"LOCATION","pattern":[{"IS_DIGIT":true},{"LOWER":"all\u00e9e"},{"IS_STOP":true,"OP":"?"},{"TEXT":{"REGEX":"\\w+"}},{"SHAPE":"dddd","OP":"?"},{"ENT_TYPE":"LOC","OP":"?"}]}
{"label":"LOCATION","pattern":[{"SHAPE":"dd"},{"IS_PUNCT":true},{"LOWER":"all\u00e9e"},{"IS_STOP":true,"OP":"?"},{"TEXT":{"REGEX":"\\w+"}},{"SHAPE":"dddd","OP":"?"},{"ENT_TYPE":"LOC","OP":"?"}]}
{"label":"LOCATION","pattern":[{"LOWER":"all\u00e9e"},{"IS_STOP":true,"OP":"?"},{"TEXT":{"REGEX":"\\w+"}},{"ENT_TYPE":"LOC","OP":"?"}]}
{"label":"LOCATION","pattern":[{"IS_DIGIT":true},{"IS_PUNCT":true},{"LOWER":"berge"},{"IS_STOP":true,"OP":"?"},{"TEXT":{"REGEX":"\\w+"}},{"SHAPE":"dddd","OP":"?"},{"ENT_TYPE":"LOC","OP":"?"}]}
{"label":"LOCATION","pattern":[{"IS_DIGIT":true},{"LOWER":"berge"},{"IS_STOP":true,"OP":"?"},{"TEXT":{"REGEX":"\\w+"}},{"SHAPE":"dddd","OP":"?"},{"ENT_TYPE":"LOC","OP":"?"}]}
{"label":"LOCATION","pattern":[{"SHAPE":"dd"},{"IS_PUNCT":true},{"LOWER":"berge"},{"IS_STOP":true,"OP":"?"},{"TEXT":{"REGEX":"\\w+"}},{"SHAPE":"dddd","OP":"?"},{"ENT_TYPE":"LOC","OP":"?"}]}
{"label":"LOCATION","pattern":[{"LOWER":"berge"},{"IS_STOP":true,"OP":"?"},{"TEXT":{"REGEX":"\\w+"}},{"ENT_TYPE":"LOC","OP":"?"}]}
{"label":"LOCATION","pattern":[{"IS_DIGIT":true},{"IS_PUNCT":true},{"LOWER":"quais"},{"IS_STOP":true,"OP":"?"},{"TEXT":{"REGEX":"\\w+"}},{"SHAPE":"dddd","OP":"?"},{"ENT_TYPE":"LOC","OP":"?"}]}
{"label":"LOCATION","pattern":[{"IS_DIGIT":true},{"LOWER":"quais"},{"IS_STOP":true,"OP":"?"},{"TEXT":{"REGEX":"\\w+"}},{"SHAPE":"dddd","OP":"?"},{"ENT_TYPE":"LOC","OP":"?"}]}
{"label":"LOCATION","pattern":[{"SHAPE":"dd"},{"IS_PUNCT":true},{"LOWER":"quais"},{"IS_STOP":true,"OP":"?"},{"TEXT":{"REGEX":"\\w+"}},{"SHAPE":"dddd","OP":"?"},{"ENT_TYPE":"LOC","OP":"?"}]}
{"label":"LOCATION","pattern":[{"LOWER":"quais"},{"IS_STOP":true,"OP":"?"},{"TEXT":{"REGEX":"\\w+"}},{"ENT_TYPE":"LOC","OP":"?"}]}
{"label":"LOCATION","pattern":[{"IS_DIGIT":true},{"IS_PUNCT":true},{"LOWER":"quai"},{"IS_STOP":true,"OP":"?"},{"TEXT":{"REGEX":"\\w+"}},{"SHAPE":"dddd","OP":"?"},{"ENT_TYPE":"LOC","OP":"?"}]}
{"label":"LOCATION","pattern":[{"IS_DIGIT":true},{"LOWER":"quai"},{"IS_STOP":true,"OP":"?"},{"TEXT":{"REGEX":"\\w+"}},{"SHAPE":"dddd","OP":"?"},{"ENT_TYPE":"LOC","OP":"?"}]}
{"label":"LOCATION","pattern":[{"SHAPE":"dd"},{"IS_PUNCT":true},{"LOWER":"quai"},{"IS_STOP":true,"OP":"?"},{"TEXT":{"REGEX":"\\w+"}},{"SHAPE":"dddd","OP":"?"},{"ENT_TYPE":"LOC","OP":"?"}]}
{"label":"LOCATION","pattern":[{"LOWER":"quai"},{"IS_STOP":true,"OP":"?"},{"TEXT":{"REGEX":"\\w+"}},{"ENT_TYPE":"LOC","OP":"?"}]}
{"label":"LOCATION","pattern":[{"IS_DIGIT":true},{"IS_PUNCT":true},{"LOWER":"chemin"},{"IS_STOP":true,"OP":"?"},{"TEXT":{"REGEX":"\\w+"}},{"SHAPE":"dddd","OP":"?"},{"ENT_TYPE":"LOC","OP":"?"}]}
{"label":"LOCATION","pattern":[{"IS_DIGIT":true},{"LOWER":"chemin"},{"IS_STOP":true,"OP":"?"},{"TEXT":{"REGEX":"\\w+"}},{"SHAPE":"dddd","OP":"?"},{"ENT_TYPE":"LOC","OP":"?"}]}
{"label":"LOCATION","pattern":[{"SHAPE":"dd"},{"IS_PUNCT":true},{"LOWER":"chemin"},{"IS_STOP":true,"OP":"?"},{"TEXT":{"REGEX":"\\w+"}},{"SHAPE":"dddd","OP":"?"},{"ENT_TYPE":"LOC","OP":"?"}]}
{"label":"LOCATION","pattern":[{"LOWER":"chemin"},{"IS_STOP":true,"OP":"?"},{"TEXT":{"REGEX":"\\w+"}},{"ENT_TYPE":"LOC","OP":"?"}]}
{"label":"LOCATION","pattern":[{"IS_DIGIT":true},{"IS_PUNCT":true},{"LOWER":"impasse"},{"IS_STOP":true,"OP":"?"},{"TEXT":{"REGEX":"\\w+"}},{"SHAPE":"dddd","OP":"?"},{"ENT_TYPE":"LOC","OP":"?"}]}
{"label":"LOCATION","pattern":[{"IS_DIGIT":true},{"LOWER":"impasse"},{"IS_STOP":true,"OP":"?"},{"TEXT":{"REGEX":"\\w+"}},{"SHAPE":"dddd","OP":"?"},{"ENT_TYPE":"LOC","OP":"?"}]}
{"label":"LOCATION","pattern":[{"SHAPE":"dd"},{"IS_PUNCT":true},{"LOWER":"impasse"},{"IS_STOP":true,"OP":"?"},{"TEXT":{"REGEX":"\\w+"}},{"SHAPE":"dddd","OP":"?"},{"ENT_TYPE":"LOC","OP":"?"}]}
{"label":"LOCATION","pattern":[{"LOWER":"impasse"},{"IS_STOP":true,"OP":"?"},{"TEXT":{"REGEX":"\\w+"}},{"ENT_TYPE":"LOC","OP":"?"}]}
{"label":"LOCATION","pattern":[{"IS_DIGIT":true},{"IS_PUNCT":true},{"LOWER":"chemin"},{"IS_STOP":true,"OP":"?"},{"TEXT":{"REGEX":"\\w+"}},{"SHAPE":"dddd","OP":"?"},{"ENT_TYPE":"LOC","OP":"?"}]}
{"label":"LOCATION","pattern":[{"IS_DIGIT":true},{"LOWER":"chemin"},{"IS_STOP":true,"OP":"?"},{"TEXT":{"REGEX":"\\w+"}},{"SHAPE":"dddd","OP":"?"},{"ENT_TYPE":"LOC","OP":"?"}]}
{"label":"LOCATION","pattern":[{"SHAPE":"dd"},{"IS_PUNCT":true},{"LOWER":"chemin"},{"IS_STOP":true,"OP":"?"},{"TEXT":{"REGEX":"\\w+"}},{"SHAPE":"dddd","OP":"?"},{"ENT_TYPE":"LOC","OP":"?"}]}
{"label":"LOCATION","pattern":[{"LOWER":"chemin"},{"IS_STOP":true,"OP":"?"},{"TEXT":{"REGEX":"\\w+"}},{"ENT_TYPE":"LOC","OP":"?"}]}
{"label":"LOCATION","pattern":[{"IS_DIGIT":true},{"IS_PUNCT":true},{"LOWER":"chemins"},{"IS_STOP":true,"OP":"?"},{"TEXT":{"REGEX":"\\w+"}},{"SHAPE":"dddd","OP":"?"},{"ENT_TYPE":"LOC","OP":"?"}]}
{"label":"LOCATION","pattern":[{"IS_DIGIT":true},{"LOWER":"chemins"},{"IS_STOP":true,"OP":"?"},{"TEXT":{"REGEX":"\\w+"}},{"SHAPE":"dddd","OP":"?"},{"ENT_TYPE":"LOC","OP":"?"}]}
{"label":"LOCATION","pattern":[{"SHAPE":"dd"},{"IS_PUNCT":true},{"LOWER":"chemins"},{"IS_STOP":true,"OP":"?"},{"TEXT":{"REGEX":"\\w+"}},{"SHAPE":"dddd","OP":"?"},{"ENT_TYPE":"LOC","OP":"?"}]}
{"label":"LOCATION","pattern":[{"LOWER":"chemins"},{"IS_STOP":true,"OP":"?"},{"TEXT":{"REGEX":"\\w+"}},{"ENT_TYPE":"LOC","OP":"?"}]}
{"label":"LOCATION","pattern":[{"IS_DIGIT":true},{"IS_PUNCT":true},{"LOWER":""},{"IS_STOP":true,"OP":"?"},{"TEXT":{"REGEX":"\\w+"}},{"SHAPE":"dddd","OP":"?"},{"ENT_TYPE":"LOC","OP":"?"}]}
{"label":"LOCATION","pattern":[{"IS_DIGIT":true},{"LOWER":""},{"IS_STOP":true,"OP":"?"},{"TEXT":{"REGEX":"\\w+"}},{"SHAPE":"dddd","OP":"?"},{"ENT_TYPE":"LOC","OP":"?"}]}
{"label":"LOCATION","pattern":[{"SHAPE":"dd"},{"IS_PUNCT":true},{"LOWER":""},{"IS_STOP":true,"OP":"?"},{"TEXT":{"REGEX":"\\w+"}},{"SHAPE":"dddd","OP":"?"},{"ENT_TYPE":"LOC","OP":"?"}]}
{"label":"LOCATION","pattern":[{"LOWER":""},{"IS_STOP":true,"OP":"?"},{"TEXT":{"REGEX":"\\w+"}},{"ENT_TYPE":"LOC","OP":"?"}]}
{"label":"LOCATION","pattern":[{"IS_DIGIT":true},{"IS_PUNCT":true},{"LOWER":""},{"IS_STOP":true,"OP":"?"},{"TEXT":{"REGEX":"\\w+"}},{"SHAPE":"dddd","OP":"?"},{"ENT_TYPE":"LOC","OP":"?"}]}
{"label":"LOCATION","pattern":[{"IS_DIGIT":true},{"LOWER":""},{"IS_STOP":true,"OP":"?"},{"TEXT":{"REGEX":"\\w+"}},{"SHAPE":"dddd","OP":"?"},{"ENT_TYPE":"LOC","OP":"?"}]}
{"label":"LOCATION","pattern":[{"SHAPE":"dd"},{"IS_PUNCT":true},{"LOWER":""},{"IS_STOP":true,"OP":"?"},{"TEXT":{"REGEX":"\\w+"}},{"SHAPE":"dddd","OP":"?"},{"ENT_TYPE":"LOC","OP":"?"}]}
{"label":"LOCATION","pattern":[{"LOWER":""},{"IS_STOP":true,"OP":"?"},{"TEXT":{"REGEX":"\\w+"}},{"ENT_TYPE":"LOC","OP":"?"}]}
{"label":"LOCATION","pattern":[{"IS_DIGIT":true},{"IS_PUNCT":true},{"LOWER":""},{"IS_STOP":true,"OP":"?"},{"TEXT":{"REGEX":"\\w+"}},{"SHAPE":"dddd","OP":"?"},{"ENT_TYPE":"LOC","OP":"?"}]}
{"label":"LOCATION","pattern":[{"IS_DIGIT":true},{"LOWER":""},{"IS_STOP":true,"OP":"?"},{"TEXT":{"REGEX":"\\w+"}},{"SHAPE":"dddd","OP":"?"},{"ENT_TYPE":"LOC","OP":"?"}]}
{"label":"LOCATION","pattern":[{"SHAPE":"dd"},{"IS_PUNCT":true},{"LOWER":""},{"IS_STOP":true,"OP":"?"},{"TEXT":{"REGEX":"\\w+"}},{"SHAPE":"dddd","OP":"?"},{"ENT_TYPE":"LOC","OP":"?"}]}
{"label":"LOCATION","pattern":[{"LOWER":""},{"IS_STOP":true,"OP":"?"},{"TEXT":{"REGEX":"\\w+"}},{"ENT_TYPE":"LOC","OP":"?"}]}
{"label":"LOCATION","pattern":[{"IS_DIGIT":true},{"IS_PUNCT":true},{"LOWER":""},{"IS_STOP":true,"OP":"?"},{"TEXT":{"REGEX":"\\w+"}},{"SHAPE":"dddd","OP":"?"},{"ENT_TYPE":"LOC","OP":"?"}]}
{"label":"LOCATION","pattern":[{"IS_DIGIT":true},{"LOWER":""},{"IS_STOP":true,"OP":"?"},{"TEXT":{"REGEX":"\\w+"}},{"SHAPE":"dddd","OP":"?"},{"ENT_TYPE":"LOC","OP":"?"}]}
{"label":"LOCATION","pattern":[{"SHAPE":"dd"},{"IS_PUNCT":true},{"LOWER":""},{"IS_STOP":true,"OP":"?"},{"TEXT":{"REGEX":"\\w+"}},{"SHAPE":"dddd","OP":"?"},{"ENT_TYPE":"LOC","OP":"?"}]}
{"label":"LOCATION","pattern":[{"LOWER":""},{"IS_STOP":true,"OP":"?"},{"TEXT":{"REGEX":"\\w+"}},{"ENT_TYPE":"LOC","OP":"?"}]}
{"label":"LOCATION","pattern":[{"IS_DIGIT":true},{"IS_PUNCT":true},{"LOWER":""},{"IS_STOP":true,"OP":"?"},{"TEXT":{"REGEX":"\\w+"}},{"SHAPE":"dddd","OP":"?"},{"ENT_TYPE":"LOC","OP":"?"}]}
{"label":"LOCATION","pattern":[{"IS_DIGIT":true},{"LOWER":""},{"IS_STOP":true,"OP":"?"},{"TEXT":{"REGEX":"\\w+"}},{"SHAPE":"dddd","OP":"?"},{"ENT_TYPE":"LOC","OP":"?"}]}
{"label":"LOCATION","pattern":[{"SHAPE":"dd"},{"IS_PUNCT":true},{"LOWER":""},{"IS_STOP":true,"OP":"?"},{"TEXT":{"REGEX":"\\w+"}},{"SHAPE":"dddd","OP":"?"},{"ENT_TYPE":"LOC","OP":"?"}]}
{"label":"LOCATION","pattern":[{"LOWER":""},{"IS_STOP":true,"OP":"?"},{"TEXT":{"REGEX":"\\w+"}},{"ENT_TYPE":"LOC","OP":"?"}]}
{"label":"LOCATION","pattern":[{"IS_DIGIT":true},{"IS_PUNCT":true},{"LOWER":""},{"IS_STOP":true,"OP":"?"},{"TEXT":{"REGEX":"\\w+"}},{"SHAPE":"dddd","OP":"?"},{"ENT_TYPE":"LOC","OP":"?"}]}
{"label":"LOCATION","pattern":[{"IS_DIGIT":true},{"LOWER":""},{"IS_STOP":true,"OP":"?"},{"TEXT":{"REGEX":"\\w+"}},{"SHAPE":"dddd","OP":"?"},{"ENT_TYPE":"LOC","OP":"?"}]}
{"label":"LOCATION","pattern":[{"SHAPE":"dd"},{"IS_PUNCT":true},{"LOWER":""},{"IS_STOP":true,"OP":"?"},{"TEXT":{"REGEX":"\\w+"}},{"SHAPE":"dddd","OP":"?"},{"ENT_TYPE":"LOC","OP":"?"}]}
{"label":"LOCATION","pattern":[{"LOWER":""},{"IS_STOP":true,"OP":"?"},{"TEXT":{"REGEX":"\\w+"}},{"ENT_TYPE":"LOC","OP":"?"}]}
{"label":"LOCATION","pattern":[{"LOWER":"montagne"},{"IS_STOP":true,"OP":"?"},{"ENT_TYPE":"LOC","OP":"?"}]}
{"label":"LOCATION","pattern":[{"LOWER":"montagnes"},{"IS_STOP":true,"OP":"?"},{"ENT_TYPE":"LOC","OP":"?"}]}
{"label":"LOCATION","pattern":[{"LOWER":"lac"},{"IS_STOP":true,"OP":"?"},{"ENT_TYPE":"LOC","OP":"?"}]}
{"label":"LOCATION","pattern":[{"LOWER":"lacs"},{"IS_STOP":true,"OP":"?"},{"ENT_TYPE":"LOC","OP":"?"}]}
{"label":"LOCATION","pattern":[{"LOWER":"rivi\u00e8re"},{"IS_STOP":true,"OP":"?"},{"ENT_TYPE":"LOC","OP":"?"}]}
{"label":"LOCATION","pattern":[{"LOWER":"rivi\u00e8res"},{"IS_STOP":true,"OP":"?"},{"ENT_TYPE":"LOC","OP":"?"}]}
{"label":"LOCATION","pattern":[{"LOWER":"fleuve"},{"IS_STOP":true,"OP":"?"},{"ENT_TYPE":"LOC","OP":"?"}]}
{"label":"LOCATION","pattern":[{"LOWER":"fleuves"},{"IS_STOP":true,"OP":"?"},{"ENT_TYPE":"LOC","OP":"?"}]}
{"label":"LOCATION","pattern":[{"LOWER":"torrrent"},{"IS_STOP":true,"OP":"?"},{"ENT_TYPE":"LOC","OP":"?"}]}
{"label":"LOCATION","pattern":[{"LOWER":"torrents"},{"IS_STOP":true,"OP":"?"},{"ENT_TYPE":"LOC","OP":"?"}]}
{"label":"LOCATION","pattern":[{"LOWER":""},{"IS_STOP":true,"OP":"?"},{"ENT_TYPE":"LOC","OP":"?"}]}
{"label":"LOCATION","pattern":[{"LOWER":""},{"IS_STOP":true,"OP":"?"},{"ENT_TYPE":"LOC","OP":"?"}]}
{"label":"LOCATION","pattern":[{"LOWER":""},{"IS_STOP":true,"OP":"?"},{"ENT_TYPE":"LOC","OP":"?"}]}
{"label":"LOCATION","pattern":[{"LOWER":""},{"IS_STOP":true,"OP":"?"},{"ENT_TYPE":"LOC","OP":"?"}]}
{"label":"LOCATION","pattern":[{"LOWER":""},{"IS_STOP":true,"OP":"?"},{"ENT_TYPE":"LOC","OP":"?"}]}
{"label":"LOCATION","pattern":[{"LOWER":""},{"IS_STOP":true,"OP":"?"},{"ENT_TYPE":"LOC","OP":"?"}]}
{"label":"ORGANISATION","pattern":[{"LOWER":"centre"},{"IS_STOP":true,"OP":"?"},{"IS_PUNCT":true,"OP":"?"},{"TEXT":{"REGEX":"\\w+"}}]}
{"label":"ORGANISATION","pattern":[{"ORTH":"canton"},{"IS_STOP":true,"OP":"+"},{"ENT_TYPE":"LOC"}]}
{"label":"ORGANISATION","pattern":[{"ORTH":"cant"},{"IS_STOP":true,"OP":"+"},{"ENT_TYPE":"LOC"}]}
{"label":"ORGANISATION","pattern":[{"ORTH":"commune"},{"IS_STOP":true,"OP":"+"},{"ENT_TYPE":"LOC"}]}
{"label":"ORGANISATION","pattern":[{"ORTH":"com"},{"IS_STOP":true,"OP":"+"},{"ENT_TYPE":"LOC"}]}
{"label":"ORGANISATION","pattern":[{"ORTH":"arrondissement"},{"IS_STOP":true,"OP":"+"},{"ENT_TYPE":"LOC"}]}
{"label":"ORGANISATION","pattern":[{"ORTH":"arr"},{"IS_STOP":true,"OP":"+"},{"ENT_TYPE":"LOC"}]}
{"label":"ORGANISATION","pattern":[{"ORTH":"bailliage"},{"IS_STOP":true,"OP":"+"},{"ENT_TYPE":"LOC"}]}
{"label":"TITLE","pattern":[{"LOWER":"architecte"}]}
{"label":"TITLE","pattern":[{"LOWER":"boulanger"}]}
{"label":"TITLE","pattern":[{"LOWER":"clerc"},{"LOWER":"de"},{"LOWER":"notaire"}]}
{"label":"TITLE","pattern":[{"LOWER":"serrurier"}]}
{"label":"TITLE","pattern":[{"LOWER":"employ\u00e9"},{"LOWER":"de"},{"LOWER":"commerce"}]}
{"label":"TITLE","pattern":[{"LOWER":"n\u00e9gociant"}]}
{"label":"TITLE","pattern":[{"LOWER":"tanneur"}]}
{"label":"TITLE","pattern":[{"LOWER":"tisserand"}]}
{"label":"TITLE","pattern":[{"LOWER":"avou\u00e9"}]}
{"label":"TITLE","pattern":[{"LOWER":"\u00e9crivain"}]}
{"label":"TITLE","pattern":[{"LOWER":"d\u00e9put\u00e9"}]}
{"label":"TITLE","pattern":[{"LOWER":"greffier"}]}
{"label":"TITLE","pattern":[{"LOWER":"notaire"}]}
{"label":"TITLE","pattern":[{"LOWER":"juge"}]}
{"label":"TITLE","pattern":[{"LOWER":"banquier"}]}
{"label":"TITLE","pattern":[{"LOWER":"tailleur"},{"LOWER":"de"},{"LOWER":"pierre"}]}
{"label":"TITLE","pattern":[{"LOWER":"explorateur"}]}
{"label":"TITLE","pattern":[{"LOWER":"imprimeur"}]}
{"label":"TITLE","pattern":[{"LOWER":"courtier"}]}
{"label":"TITLE","pattern":[{"LOWER":"musicien"}]}
{"label":"TITLE","pattern":[{"LOWER":"abb\u00e9"}]}
{"label":"TITLE","pattern":[{"LOWER":"\u00e9diteur"}]}
{"label":"TITLE","pattern":[{"LOWER":"artiste"}]}
{"label":"TITLE","pattern":[{"LOWER":"peintre"}]}
{"label":"TITLE","pattern":[{"LOWER":"soldat"}]}
{"label":"TITLE","pattern":[{"LOWER":"compositeur"},{"LOWER":"de"},{"LOWER":"musique"}]}
{"label":"TITLE","pattern":[{"LOWER":"m\u00e9decin"}]}
{"label":"TITLE","pattern":[{"LOWER":"\u00e9lu"},{"LOWER":"local"}]}
{"label":"TITLE","pattern":[{"LOWER":"teinturier"},{"LOWER":"blanchisseur"}]}
{"label":"TITLE","pattern":[{"LOWER":"coiffeur"}]}
{"label":"TITLE","pattern":[{"LOWER":"cardinal"}]}
{"label":"TITLE","pattern":[{"LOWER":"comptable"}]}
{"label":"TITLE","pattern":[{"LOWER":"dirigeant"},{"LOWER":"politique"}]}
{"label":"TITLE","pattern":[{"LOWER":"avocat"},{"LOWER":"au"},{"LOWER":"parlement"},{"LOWER":""}]}
{"label":"TITLE","pattern":[{"LOWER":"pr\u00e9sident"},{"LOWER":"de"},{"LOWER":"cour"},{"LOWER":"souveraine"},{"LOWER":""}]}
{"label":"TITLE","pattern":[{"LOWER":"pr\u00e9sident"},{"LOWER":""}]}
{"label":"TITLE","pattern":[{"LOWER":"boucher"}]}
{"label":"TITLE","pattern":[{"LOWER":"directeur"},{"LOWER":"d'\u00e9tablissement"},{"LOWER":"d'enseignement"}]}
{"label":"TITLE","pattern":[{"LOWER":"brocanteur"}]}
{"label":"TITLE","pattern":[{"LOWER":"avocat"}]}
{"label":"TITLE","pattern":[{"LOWER":"loueur"},{"LOWER":"de"},{"LOWER":"v\u00e9hicules"}]}
{"label":"TITLE","pattern":[{"LOWER":"cur\u00e9"}]}
{"label":"TITLE","pattern":[{"LOWER":"m\u00e9canicien"}]}
{"label":"TITLE","pattern":[{"LOWER":"menuisier"}]}
{"label":"TITLE","pattern":[{"LOWER":"ma\u00e7on"}]}
{"label":"TITLE","pattern":[{"LOWER":"chef"},{"LOWER":"d'entreprise"}]}
{"label":"TITLE","pattern":[{"LOWER":"charcutier"}]}
{"label":"TITLE","pattern":[{"LOWER":"facteur"},{"LOWER":"de"},{"LOWER":"la"},{"LOWER":"poste"},{"LOWER":"aux"},{"LOWER":"lettres"}]}
{"label":"TITLE","pattern":[{"LOWER":"papetier"}]}
{"label":"TITLE","pattern":[{"LOWER":"pharmacien"}]}
{"label":"TITLE","pattern":[{"LOWER":"tailleur"},{"LOWER":"d'habits"}]}
{"label":"TITLE","pattern":[{"LOWER":"ing\u00e9nieur"}]}
{"label":"TITLE","pattern":[{"LOWER":"p\u00e2tissier"}]}
{"label":"TITLE","pattern":[{"LOWER":"h\u00f4telier"}]}
{"label":"TITLE","pattern":[{"LOWER":"tourneur"}]}
{"label":"TITLE","pattern":[{"LOWER":"cuisinier"}]}
{"label":"TITLE","pattern":[{"LOWER":"\u00e9b\u00e9niste"}]}
{"label":"TITLE","pattern":[{"LOWER":"plombier"}]}
{"label":"TITLE","pattern":[{"LOWER":"couvreur"}]}
{"label":"TITLE","pattern":[{"LOWER":"tapissier"}]}
{"label":"TITLE","pattern":[{"LOWER":"publicitaire"}]}
{"label":"TITLE","pattern":[{"LOWER":"conducteur"},{"LOWER":"de"},{"LOWER":"travaux"}]}
{"label":"TITLE","pattern":[{"LOWER":"parfumeur"}]}
{"label":"TITLE","pattern":[{"LOWER":"ma\u00eetre"},{"LOWER":"d'h\u00f4tel"}]}
{"label":"TITLE","pattern":[{"LOWER":"conseiller"},{"LOWER":"du"},{"LOWER":"roi"}]}
{"label":"TITLE","pattern":[{"LOWER":"garde-chasse"}]}
{"label":"TITLE","pattern":[{"LOWER":"g\u00e9om\u00e8tre"}]}
{"label":"TITLE","pattern":[{"LOWER":"charpentier"}]}
{"label":"TITLE","pattern":[{"LOWER":"jardinier"}]}
{"label":"TITLE","pattern":[{"LOWER":"restaurateur"}]}
{"label":"TITLE","pattern":[{"LOWER":"dessinateur"}]}
{"label":"TITLE","pattern":[{"LOWER":"chauffeur"},{"LOWER":"de"},{"LOWER":"taxi"}]}
{"label":"TITLE","pattern":[{"LOWER":"commer\u00e7ant"}]}
{"label":"TITLE","pattern":[{"LOWER":"militaire"},{"LOWER":"du"},{"LOWER":"rang"}]}
{"label":"TITLE","pattern":[{"LOWER":"officier"},{"LOWER":""}]}
{"label":"TITLE","pattern":[{"LOWER":"layetier"}]}
{"label":"TITLE","pattern":[{"LOWER":"\u00e9tudiant"}]}
{"label":"TITLE","pattern":[{"LOWER":"concierge"}]}
{"label":"TITLE","pattern":[{"LOWER":"huissier"}]}
{"label":"TITLE","pattern":[{"LOWER":"agriculteur"}]}
{"label":"TITLE","pattern":[{"LOWER":"forgeron"}]}
{"label":"TITLE","pattern":[{"LOWER":"sellier"}]}
{"label":"TITLE","pattern":[{"LOWER":"carrossier"}]}
{"label":"TITLE","pattern":[{"LOWER":"conducteur"},{"LOWER":"de"},{"LOWER":"v\u00e9hicules"}]}
{"label":"TITLE","pattern":[{"LOWER":"\u00e9lu"}]}
{"label":"TITLE","pattern":[{"LOWER":"procureur"},{"LOWER":"du"},{"LOWER":"roi"},{"LOWER":""}]}
{"label":"TITLE","pattern":[{"LOWER":"fonctionnaire"}]}
{"label":"TITLE","pattern":[{"LOWER":"chirurgien"}]}
{"label":"TITLE","pattern":[{"LOWER":"serveur"}]}
{"label":"TITLE","pattern":[{"LOWER":"conseil"},{"LOWER":"juridique"}]}
{"label":"TITLE","pattern":[{"LOWER":"bottier"}]}
{"label":"TITLE","pattern":[{"LOWER":"cordonnier"}]}
{"label":"TITLE","pattern":[{"LOWER":"militaire"}]}
{"label":"TITLE","pattern":[{"LOWER":"syndic"},{"LOWER":"de"},{"LOWER":"faillite"}]}
{"label":"TITLE","pattern":[{"LOWER":"commissaire-priseur"}]}
{"label":"TITLE","pattern":[{"LOWER":"agent"},{"LOWER":"de"},{"LOWER":"change"}]}
{"label":"TITLE","pattern":[{"LOWER":"archiviste"}]}
{"label":"TITLE","pattern":[{"LOWER":"tr\u00e9sorier"}]}
{"label":"TITLE","pattern":[{"LOWER":"eccl\u00e9siastique"}]}
{"label":"TITLE","pattern":[{"LOWER":"libraire"}]}
{"label":"TITLE","pattern":[{"LOWER":"journaliste"}]}
{"label":"TITLE","pattern":[{"LOWER":"juriste"}]}
{"label":"TITLE","pattern":[{"LOWER":"facteur"},{"LOWER":"d'instruments"},{"LOWER":"de"},{"LOWER":"musique"}]}
{"label":"TITLE","pattern":[{"LOWER":"diplomate"}]}
{"label":"TITLE","pattern":[{"LOWER":"policier"}]}
{"label":"TITLE","pattern":[{"LOWER":"commissaire"},{"LOWER":"des"},{"LOWER":"guerres"},{"LOWER":""}]}
{"label":"TITLE","pattern":[{"LOWER":"potier"}]}
{"label":"TITLE","pattern":[{"LOWER":"magistrat"}]}
{"label":"TITLE","pattern":[{"LOWER":"distillateur"}]}
{"label":"TITLE","pattern":[{"LOWER":"machiniste"},{"LOWER":""}]}
{"label":"TITLE","pattern":[{"LOWER":"charbonnier"}]}
{"label":"TITLE","pattern":[{"LOWER":"vitrier"}]}
{"label":"TITLE","pattern":[{"LOWER":"chanteur"}]}
{"label":"TITLE","pattern":[{"LOWER":"enseignant"}]}
{"label":"TITLE","pattern":[{"LOWER":"meunier"}]}
{"label":"TITLE","pattern":[{"LOWER":"acteur"}]}
{"label":"TITLE","pattern":[{"LOWER":"fabricant"},{"LOWER":"d'accessoires"},{"LOWER":"vestimentaires"}]}
{"label":"TITLE","pattern":[{"LOWER":"inspecteur"},{"LOWER":"g\u00e9n\u00e9ral"}]}
{"label":"TITLE","pattern":[{"LOWER":"fourreur"}]}
{"label":"TITLE","pattern":[{"LOWER":"miroitier"}]}
{"label":"TITLE","pattern":[{"LOWER":"conservateur"},{"LOWER":""}]}
{"label":"TITLE","pattern":[{"LOWER":"paveur-dalleur"}]}
{"label":"TITLE","pattern":[{"LOWER":"graveur"}]}
{"label":"TITLE","pattern":[{"LOWER":"ma\u00eetre"},{"LOWER":"de"},{"LOWER":"poste"}]}
{"label":"TITLE","pattern":[{"LOWER":"employ\u00e9"},{"LOWER":"de"},{"LOWER":"maison"}]}
{"label":"TITLE","pattern":[{"LOWER":"religieux"}]}
{"label":"TITLE","pattern":[{"LOWER":"marin"}]}
{"label":"TITLE","pattern":[{"LOWER":"conservateur"},{"LOWER":"des"},{"LOWER":"privil\u00e8ges"},{"LOWER":""}]}
{"label":"TITLE","pattern":[{"LOWER":"sculpteur"}]}
{"label":"TITLE","pattern":[{"LOWER":"biblioth\u00e9caire"}]}
{"label":"TITLE","pattern":[{"LOWER":"inspecteur"}]}
{"label":"TITLE","pattern":[{"LOWER":"percepteur"}]}
{"label":"TITLE","pattern":[{"LOWER":"cr\u00e9mier"}]}
{"label":"TITLE","pattern":[{"LOWER":"doyen"},{"LOWER":"d'universit\u00e9"}]}
{"label":"TITLE","pattern":[{"LOWER":"tonnelier"}]}
{"label":"TITLE","pattern":[{"LOWER":"pr\u00e9fet"}]}
{"label":"TITLE","pattern":[{"LOWER":"officier"},{"LOWER":"g\u00e9n\u00e9ral"}]}
{"label":"TITLE","pattern":[{"LOWER":"sous-officier"}]}
{"label":"TITLE","pattern":[{"LOWER":"personnel"},{"LOWER":"administratif"}]}
{"label":"TITLE","pattern":[{"LOWER":"fondeur"}]}
{"label":"TITLE","pattern":[{"LOWER":"avocat"},{"LOWER":"aux"},{"LOWER":"conseils"},{"LOWER":""}]}
{"label":"TITLE","pattern":[{"LOWER":"dentellier"}]}
{"label":"TITLE","pattern":[{"LOWER":"v\u00e9t\u00e9rinaire"}]}
{"label":"TITLE","pattern":[{"LOWER":"sage-femme"}]}
{"label":"TITLE","pattern":[{"LOWER":"accordeur"},{"LOWER":"de"},{"LOWER":"piano"}]}
{"label":"TITLE","pattern":[{"LOWER":"charron"}]}
{"label":"TITLE","pattern":[{"LOWER":"officier"},{"LOWER":"de"},{"LOWER":"la"},{"LOWER":"maison"},{"LOWER":"militaire"},{"LOWER":"du"},{"LOWER":"roi"},{"LOWER":""}]}
{"label":"TITLE","pattern":[{"LOWER":"huissier"},{"LOWER":"de"},{"LOWER":"justice"}]}
{"label":"TITLE","pattern":[{"LOWER":"danseur"}]}
{"label":"TITLE","pattern":[{"LOWER":"horloger"}]}
{"label":"TITLE","pattern":[{"LOWER":"orf\u00e8vre"}]}
{"label":"TITLE","pattern":[{"LOWER":"peintre"},{"LOWER":"en"},{"LOWER":"b\u00e2timent"}]}
{"label":"TITLE","pattern":[{"LOWER":"consul"}]}
{"label":"TITLE","pattern":[{"LOWER":"secr\u00e9taire"}]}
{"label":"TITLE","pattern":[{"LOWER":"d\u00e9corateur"}]}
{"label":"TITLE","pattern":[{"LOWER":"viticulteur"}]}
{"label":"TITLE","pattern":[{"LOWER":"sous-pr\u00e9fet"}]}
{"label":"TITLE","pattern":[{"LOWER":"chocolatier"}]}
{"label":"TITLE","pattern":[{"LOWER":"horticulteur"}]}
{"label":"TITLE","pattern":[{"LOWER":"passementier"}]}
{"label":"TITLE","pattern":[{"LOWER":"fleuriste"}]}
{"label":"TITLE","pattern":[{"LOWER":"\u00e9conome"}]}
{"label":"TITLE","pattern":[{"LOWER":"administrateur"}]}
{"label":"TITLE","pattern":[{"LOWER":"brodeur"}]}
{"label":"TITLE","pattern":[{"LOWER":"herboriste"}]}
{"label":"TITLE","pattern":[{"LOWER":"journalier"}]}
{"label":"TITLE","pattern":[{"LOWER":"voyageur"},{"LOWER":"de"},{"LOWER":"commerce"}]}
{"label":"TITLE","pattern":[{"LOWER":"docteur"},{"LOWER":"d'universit\u00e9"}]}
{"label":"TITLE","pattern":[{"LOWER":"docteur"}]}
{"label":"TITLE","pattern":[{"LOWER":"dr."}]}
{"label":"TITLE","pattern":[{"LOWER":"carrier"}]}
{"label":"TITLE","pattern":[{"LOWER":"douanier"}]}
{"label":"TITLE","pattern":[{"LOWER":"nourrice"}]}
{"label":"TITLE","pattern":[{"LOWER":"batteur"},{"LOWER":"de"},{"LOWER":"m\u00e9tal"}]}
{"label":"TITLE","pattern":[{"LOWER":"ramoneur"}]}
{"label":"TITLE","pattern":[{"LOWER":"chef"},{"LOWER":"de"},{"LOWER":"service"},{"LOWER":"d'administration"},{"LOWER":"centrale"}]}
{"label":"TITLE","pattern":[{"LOWER":"mar\u00e9chal-ferrant"}]}
{"label":"TITLE","pattern":[{"LOWER":"pr\u00eatre"}]}
{"label":"TITLE","pattern":[{"LOWER":"s\u00e9nateur"}]}
{"label":"TITLE","pattern":[{"LOWER":"procureur"},{"LOWER":"de"},{"LOWER":"justice"},{"LOWER":""}]}
{"label":"TITLE","pattern":[{"LOWER":"conseiller"},{"LOWER":"de"},{"LOWER":"cour"},{"LOWER":"souveraine"},{"LOWER":""}]}
{"label":"TITLE","pattern":[{"LOWER":"poissonnier"}]}
{"label":"TITLE","pattern":[{"LOWER":"ministre"}]}
{"label":"TITLE","pattern":[{"LOWER":"officier"},{"LOWER":"de"},{"LOWER":"la"},{"LOWER":"marine"},{"LOWER":"marchande"}]}
{"label":"TITLE","pattern":[{"LOWER":"tabletier"}]}
{"label":"TITLE","pattern":[{"LOWER":"opticien"}]}
{"label":"TITLE","pattern":[{"LOWER":"maroquinier"}]}
{"label":"TITLE","pattern":[{"LOWER":"chercheur"}]}
{"label":"TITLE","pattern":[{"LOWER":"cartographe"}]}
{"label":"TITLE","pattern":[{"LOWER":"po\u00eblier"},{"LOWER":"fumiste"}]}
{"label":"TITLE","pattern":[{"LOWER":"homme"},{"LOWER":"de"},{"LOWER":"labeur"}]}
{"label":"TITLE","pattern":[{"LOWER":"ban"}]}
{"label":"TITLE","pattern":[{"ORTH":"ban"},{"IS_STOP":true,"OP":"?"},{"ENT_TYPE":"LOC"}]}
{"label":"TITLE","pattern":[{"LOWER":"baron"}]}
{"label":"TITLE","pattern":[{"ORTH":"baron"},{"IS_STOP":true,"OP":"?"},{"ENT_TYPE":"LOC"}]}
{"label":"TITLE","pattern":[{"LOWER":"baronne"}]}
{"label":"TITLE","pattern":[{"ORTH":"baronne"},{"IS_STOP":true,"OP":"?"},{"ENT_TYPE":"LOC"}]}
{"label":"TITLE","pattern":[{"LOWER":"baronnet"}]}
{"label":"TITLE","pattern":[{"ORTH":"baronnet"},{"IS_STOP":true,"OP":"?"},{"ENT_TYPE":"LOC"}]}
{"label":"TITLE","pattern":[{"LOWER":"comte"}]}
{"label":"TITLE","pattern":[{"ORTH":"comte"},{"IS_STOP":true,"OP":"?"},{"ENT_TYPE":"LOC"}]}
{"label":"TITLE","pattern":[{"LOWER":"comtesse"}]}
{"label":"TITLE","pattern":[{"ORTH":"comtesse"},{"IS_STOP":true,"OP":"?"},{"ENT_TYPE":"LOC"}]}
{"label":"TITLE","pattern":[{"LOWER":"dauphin"}]}
{"label":"TITLE","pattern":[{"ORTH":"dauphin"},{"IS_STOP":true,"OP":"?"},{"ENT_TYPE":"LOC"}]}
{"label":"TITLE","pattern":[{"LOWER":"duc"}]}
{"label":"TITLE","pattern":[{"ORTH":"duc"},{"IS_STOP":true,"OP":"?"},{"ENT_TYPE":"LOC"}]}
{"label":"TITLE","pattern":[{"LOWER":"duchesse"}]}
{"label":"TITLE","pattern":[{"ORTH":"duchesse"},{"IS_STOP":true,"OP":"?"},{"ENT_TYPE":"LOC"}]}
{"label":"TITLE","pattern":[{"LOWER":"empereur"}]}
{"label":"TITLE","pattern":[{"ORTH":"empereur"},{"IS_STOP":true,"OP":"?"},{"ENT_TYPE":"LOC"}]}
{"label":"TITLE","pattern":[{"LOWER":"imp\u00e9ratrice"}]}
{"label":"TITLE","pattern":[{"ORTH":"imp\u00e9ratrice"},{"IS_STOP":true,"OP":"?"},{"ENT_TYPE":"LOC"}]}
{"label":"TITLE","pattern":[{"LOWER":"jarl"}]}
{"label":"TITLE","pattern":[{"ORTH":"jarl"},{"IS_STOP":true,"OP":"?"},{"ENT_TYPE":"LOC"}]}
{"label":"TITLE","pattern":[{"LOWER":"marquis"}]}
{"label":"TITLE","pattern":[{"ORTH":"marquis"},{"IS_STOP":true,"OP":"?"},{"ENT_TYPE":"LOC"}]}
{"label":"TITLE","pattern":[{"LOWER":"marquise"}]}
{"label":"TITLE","pattern":[{"ORTH":"marquise"},{"IS_STOP":true,"OP":"?"},{"ENT_TYPE":"LOC"}]}
{"label":"TITLE","pattern":[{"LOWER":"pairie"}]}
{"label":"TITLE","pattern":[{"ORTH":"pairie"},{"IS_STOP":true,"OP":"?"},{"ENT_TYPE":"LOC"}]}
{"label":"TITLE","pattern":[{"LOWER":"prince"}]}
{"label":"TITLE","pattern":[{"ORTH":"prince"},{"IS_STOP":true,"OP":"?"},{"ENT_TYPE":"LOC"}]}
{"label":"TITLE","pattern":[{"LOWER":"prince-\u00e9v\u00eaque"}]}
{"label":"TITLE","pattern":[{"ORTH":"prince-\u00e9v\u00eaque"},{"IS_STOP":true,"OP":"?"},{"ENT_TYPE":"LOC"}]}
{"label":"TITLE","pattern":[{"LOWER":"prince-pr\u00e9v\u00f4t"}]}
{"label":"TITLE","pattern":[{"ORTH":"prince-pr\u00e9v\u00f4t"},{"IS_STOP":true,"OP":"?"},{"ENT_TYPE":"LOC"}]}
{"label":"TITLE","pattern":[{"LOWER":"princesse"}]}
{"label":"TITLE","pattern":[{"ORTH":"princesse"},{"IS_STOP":true,"OP":"?"},{"ENT_TYPE":"LOC"}]}
{"label":"TITLE","pattern":[{"LOWER":"reine"}]}
{"label":"TITLE","pattern":[{"ORTH":"reine"},{"IS_STOP":true,"OP":"?"},{"ENT_TYPE":"LOC"}]}
{"label":"TITLE","pattern":[{"LOWER":"roi"}]}
{"label":"TITLE","pattern":[{"ORTH":"roi"},{"IS_STOP":true,"OP":"?"},{"ENT_TYPE":"LOC"}]}
{"label":"TITLE","pattern":[{"LOWER":"seigneur"}]}
{"label":"TITLE","pattern":[{"ORTH":"seigneur"},{"IS_STOP":true,"OP":"?"},{"ENT_TYPE":"LOC"}]}
{"label":"TITLE","pattern":[{"LOWER":"sultan"}]}
{"label":"TITLE","pattern":[{"ORTH":"sultan"},{"IS_STOP":true,"OP":"?"},{"ENT_TYPE":"LOC"}]}
{"label":"TITLE","pattern":[{"LOWER":"vice-roi"}]}
{"label":"TITLE","pattern":[{"ORTH":"vice-roi"},{"IS_STOP":true,"OP":"?"},{"ENT_TYPE":"LOC"}]}
{"label":"TITLE","pattern":[{"LOWER":"vice-reine"}]}
{"label":"TITLE","pattern":[{"ORTH":"vice-reine"},{"IS_STOP":true,"OP":"?"},{"ENT_TYPE":"LOC"}]}
{"label":"TITLE","pattern":[{"LOWER":"r\u00e9gente"}]}
{"label":"TITLE","pattern":[{"ORTH":"r\u00e9gente"},{"IS_STOP":true,"OP":"?"},{"ENT_TYPE":"LOC"}]}
{"label":"TITLE","pattern":[{"LOWER":"vicomte"}]}
{"label":"TITLE","pattern":[{"ORTH":"vicomte"},{"IS_STOP":true,"OP":"?"},{"ENT_TYPE":"LOC"}]}
{"label":"TITLE","pattern":[{"LOWER":"vicomtesse"}]}
{"label":"TITLE","pattern":[{"ORTH":"vicomtesse"},{"IS_STOP":true,"OP":"?"},{"ENT_TYPE":"LOC"}]}
{"label":"TITLE","pattern":[{"LOWER":"vidame"}]}
{"label":"TITLE","pattern":[{"ORTH":"vidame"},{"IS_STOP":true,"OP":"?"},{"ENT_TYPE":"LOC"}]}
{"label":"TITLE","pattern":[{"LOWER":"vizir"}]}
{"label":"TITLE","pattern":[{"ORTH":"vizir"},{"IS_STOP":true,"OP":"?"},{"ENT_TYPE":"LOC"}]}
{"label":"TITLE","pattern":[{"LOWER":"archiduc"}]}
{"label":"TITLE","pattern":[{"ORTH":"archiduc"},{"IS_STOP":true,"OP":"?"},{"ENT_TYPE":"LOC"}]}
{"label":"TITLE","pattern":[{"LOWER":"archiduchesse"}]}
{"label":"TITLE","pattern":[{"ORTH":"archiduchesse"},{"IS_STOP":true,"OP":"?"},{"ENT_TYPE":"LOC"}]}
{"label":"TITLE","pattern":[{"LOWER":"chevalier"}]}
{"label":"TITLE","pattern":[{"ORTH":"chevalier"},{"IS_STOP":true,"OP":"?"},{"ENT_TYPE":"LOC"}]}
{"label":"TITLE","pattern":[{"LOWER":"conn\u00e9table"}]}
{"label":"TITLE","pattern":[{"ORTH":"conn\u00e9table"},{"IS_STOP":true,"OP":"?"},{"ENT_TYPE":"LOC"}]}
{"label":"TITLE","pattern":[{"LOWER":"dauphine"}]}
{"label":"TITLE","pattern":[{"ORTH":"dauphine"},{"IS_STOP":true,"OP":"?"},{"ENT_TYPE":"LOC"}]}
{"label":"TITLE","pattern":[{"LOWER":"prince-abb\u00e9"}]}
{"label":"TITLE","pattern":[{"ORTH":"prince-abb\u00e9"},{"IS_STOP":true,"OP":"?"},{"ENT_TYPE":"LOC"}]}
{"label":"TITLE","pattern":[{"LOWER":"sa"},{"LOWER":"majest\u00e9"}]}
{"label":"TITLE","pattern":[{"ORTH":"sa majest\u00e9"},{"IS_STOP":true,"OP":"?"},{"ENT_TYPE":"LOC"}]}
{"label":"TITLE","pattern":[{"LOWER":"sa"},{"LOWER":"majest\u00e9"},{"LOWER":"imp\u00e9riale"}]}
{"label":"TITLE","pattern":[{"ORTH":"sa majest\u00e9 imp\u00e9riale"},{"IS_STOP":true,"OP":"?"},{"ENT_TYPE":"LOC"}]}
{"label":"TITLE","pattern":[{"LOWER":"son"},{"LOWER":"altesse"},{"LOWER":"imp\u00e9riale"}]}
{"label":"TITLE","pattern":[{"ORTH":"son altesse imp\u00e9riale"},{"IS_STOP":true,"OP":"?"},{"ENT_TYPE":"LOC"}]}
{"label":"TITLE","pattern":[{"LOWER":"son"},{"LOWER":"excellence"}]}
{"label":"TITLE","pattern":[{"ORTH":"son excellence"},{"IS_STOP":true,"OP":"?"},{"ENT_TYPE":"LOC"}]}
{"label":"TITLE","pattern":[{"LOWER":"pape"}]}
{"label":"TITLE","pattern":[{"ORTH":"pape"},{"IS_STOP":true,"OP":"?"},{"ENT_TYPE":"LOC"}]}
{"label":"TITLE","pattern":[{"LOWER":"cardinal"}]}
{"label":"TITLE","pattern":[{"ORTH":"cardinal"},{"IS_STOP":true,"OP":"?"},{"ENT_TYPE":"LOC"}]}
{"label":"TITLE","pattern":[{"LOWER":"\u00e9v\u00eaque"}]}
{"label":"TITLE","pattern":[{"ORTH":"\u00e9v\u00eaque"},{"IS_STOP":true,"OP":"?"},{"ENT_TYPE":"LOC"}]}
{"label":"TITLE","pattern":[{"LOWER":"\u00e9v\u00eaque"},{"LOWER":"dioc\u00e9sain"}]}
{"label":"TITLE","pattern":[{"ORTH":"\u00e9v\u00eaque dioc\u00e9sain"},{"IS_STOP":true,"OP":"?"},{"ENT_TYPE":"LOC"}]}
{"label":"TITLE","pattern":[{"LOWER":"\u00e9v\u00eaque"},{"LOWER":"in"},{"LOWER":"partibus"}]}
{"label":"TITLE","pattern":[{"ORTH":"\u00e9v\u00eaque in partibus"},{"IS_STOP":true,"OP":"?"},{"ENT_TYPE":"LOC"}]}
{"label":"TITLE","pattern":[{"LOWER":"\u00e9v\u00eaque"},{"LOWER":"auxiliaire"}]}
{"label":"TITLE","pattern":[{"ORTH":"\u00e9v\u00eaque auxiliaire"},{"IS_STOP":true,"OP":"?"},{"ENT_TYPE":"LOC"}]}
{"label":"TITLE","pattern":[{"LOWER":"\u00e9v\u00eaque"},{"LOWER":"coadjuteur"}]}
{"label":"TITLE","pattern":[{"ORTH":"\u00e9v\u00eaque coadjuteur"},{"IS_STOP":true,"OP":"?"},{"ENT_TYPE":"LOC"}]}
{"label":"TITLE","pattern":[{"LOWER":"\u00e9v\u00eaque"},{"LOWER":"\u00e9m\u00e9rite"}]}
{"label":"TITLE","pattern":[{"ORTH":"\u00e9v\u00eaque \u00e9m\u00e9rite"},{"IS_STOP":true,"OP":"?"},{"ENT_TYPE":"LOC"}]}
{"label":"TITLE","pattern":[{"LOWER":"archev\u00eaque"}]}
{"label":"TITLE","pattern":[{"ORTH":"archev\u00eaque"},{"IS_STOP":true,"OP":"?"},{"ENT_TYPE":"LOC"}]}
{"label":"TITLE","pattern":[{"LOWER":"pr\u00eatre"}]}
{"label":"TITLE","pattern":[{"ORTH":"pr\u00eatre"},{"IS_STOP":true,"OP":"?"},{"ENT_TYPE":"LOC"}]}
{"label":"TITLE","pattern":[{"LOWER":"archipr\u00eatre"}]}
{"label":"TITLE","pattern":[{"ORTH":"archipr\u00eatre"},{"IS_STOP":true,"OP":"?"},{"ENT_TYPE":"LOC"}]}
{"label":"TITLE","pattern":[{"LOWER":"doyen"}]}
{"label":"TITLE","pattern":[{"ORTH":"doyen"},{"IS_STOP":true,"OP":"?"},{"ENT_TYPE":"LOC"}]}
{"label":"TITLE","pattern":[{"LOWER":"cur\u00e9"}]}
{"label":"TITLE","pattern":[{"ORTH":"cur\u00e9"},{"IS_STOP":true,"OP":"?"},{"ENT_TYPE":"LOC"}]}
{"label":"TITLE","pattern":[{"LOWER":"vicaire"}]}
{"label":"TITLE","pattern":[{"ORTH":"vicaire"},{"IS_STOP":true,"OP":"?"},{"ENT_TYPE":"LOC"}]}
{"label":"TITLE","pattern":[{"LOWER":"diacre"}]}
{"label":"TITLE","pattern":[{"ORTH":"diacre"},{"IS_STOP":true,"OP":"?"},{"ENT_TYPE":"LOC"}]}
{"label":"TITLE","pattern":[{"LOWER":"s\u00e9minariste"}]}
{"label":"TITLE","pattern":[{"ORTH":"s\u00e9minariste"},{"IS_STOP":true,"OP":"?"},{"ENT_TYPE":"LOC"}]}
{"label":"TITLE","pattern":[{"LOWER":"abb\u00e9"}]}
{"label":"TITLE","pattern":[{"ORTH":"abb\u00e9"},{"IS_STOP":true,"OP":"?"},{"ENT_TYPE":"LOC"}]}
{"label":"TITLE","pattern":[{"LOWER":"abbesse"}]}
{"label":"TITLE","pattern":[{"ORTH":"abbesse"},{"IS_STOP":true,"OP":"?"},{"ENT_TYPE":"LOC"}]}
{"label":"TITLE","pattern":[{"LOWER":""}]}
{"label":"TITLE","pattern":[{"ORTH":""},{"IS_STOP":true,"OP":"?"},{"ENT_TYPE":"LOC"}]}
{"label":"TITLE","pattern":[{"LOWER":""}]}
{"label":"TITLE","pattern":[{"ORTH":""},{"IS_STOP":true,"OP":"?"},{"ENT_TYPE":"LOC"}]}
{"label":"DATETIME","pattern":[{"SHAPE":"dd/dd/dd"}]}
{"label":"DATETIME","pattern":[{"SHAPE":"dd/dd/dddd"}]}
{"label":"DATETIME","pattern":[{"SHAPE":"dd:dd:dd"}]}
{"label":"DATETIME","pattern":[{"SHAPE":"dd:dd:dddd"}]}
{"label":"DATETIME","pattern":[{"SHAPE":"dd-dd-dd"}]}
{"label":"DATETIME","pattern":[{"SHAPE":"dd-dd-dddd"}]}
{"label":"DATETIME","pattern":[{"SHAPE":"dddd-dddd"}]}
{"label":"DATETIME","pattern":[{"SHAPE":"dddd"}]}
{"label":"DATETIME","pattern":[{"IS_DIGIT":true},{"LOWER":"janvier"},{"SHAPE":"dddd"}]}
{"label":"DATETIME","pattern":[{"IS_DIGIT":true},{"LOWER":"f\u00e9vrier"},{"SHAPE":"dddd"}]}
{"label":"DATETIME","pattern":[{"IS_DIGIT":true},{"LOWER":"mars"},{"SHAPE":"dddd"}]}
{"label":"DATETIME","pattern":[{"IS_DIGIT":true},{"LOWER":"avril"},{"SHAPE":"dddd"}]}
{"label":"DATETIME","pattern":[{"IS_DIGIT":true},{"LOWER":"mai"},{"SHAPE":"dddd"}]}
{"label":"DATETIME","pattern":[{"IS_DIGIT":true},{"LOWER":"juin"},{"SHAPE":"dddd"}]}
{"label":"DATETIME","pattern":[{"IS_DIGIT":true},{"LOWER":"juillet"},{"SHAPE":"dddd"}]}
{"label":"DATETIME","pattern":[{"IS_DIGIT":true},{"LOWER":"ao\u00fbt"},{"SHAPE":"dddd"}]}
{"label":"DATETIME","pattern":[{"IS_DIGIT":true},{"LOWER":"septembre"},{"SHAPE":"dddd"}]}
{"label":"DATETIME","pattern":[{"IS_DIGIT":true},{"LOWER":"octobre"},{"SHAPE":"dddd"}]}
{"label":"DATETIME","pattern":[{"IS_DIGIT":true},{"LOWER":"novembre"},{"SHAPE":"dddd"}]}
{"label":"DATETIME","pattern":[{"IS_DIGIT":true},{"LOWER":"d\u00e9cembre"},{"SHAPE":"dddd"}]}
{"label":"DATETIME","pattern":[{"LOWER":"janvier"}]}
{"label":"DATETIME","pattern":[{"LOWER":"f\u00e9vrier"}]}
{"label":"DATETIME","pattern":[{"LOWER":"mars"}]}
{"label":"DATETIME","pattern":[{"LOWER":"avril"}]}
{"label":"DATETIME","pattern":[{"LOWER":"mai"}]}
{"label":"DATETIME","pattern":[{"LOWER":"juin"}]}
{"label":"DATETIME","pattern":[{"LOWER":"juillet"}]}
{"label":"DATETIME","pattern":[{"LOWER":"ao\u00fbt"}]}
{"label":"DATETIME","pattern":[{"LOWER":"septembre"}]}
{"label":"DATETIME","pattern":[{"LOWER":"octobre"}]}
{"label":"DATETIME","pattern":[{"LOWER":"novembre"}]}
{"label":"DATETIME","pattern":[{"LOWER":"d\u00e9cembre"}]}
{"label":"DATETIME","pattern":[{"LOWER":"janvier"},{"SHAPE":"dddd"}]}
{"label":"DATETIME","pattern":[{"LOWER":"f\u00e9vrier"},{"SHAPE":"dddd"}]}
{"label":"DATETIME","pattern":[{"LOWER":"mars"},{"SHAPE":"dddd"}]}
{"label":"DATETIME","pattern":[{"LOWER":"avril"},{"SHAPE":"dddd"}]}
{"label":"DATETIME","pattern":[{"LOWER":"mai"},{"SHAPE":"dddd"}]}
{"label":"DATETIME","pattern":[{"LOWER":"juin"},{"SHAPE":"dddd"}]}
{"label":"DATETIME","pattern":[{"LOWER":"juillet"},{"SHAPE":"dddd"}]}
{"label":"DATETIME","pattern":[{"LOWER":"ao\u00fbt"},{"SHAPE":"dddd"}]}
{"label":"DATETIME","pattern":[{"LOWER":"septembre"},{"SHAPE":"dddd"}]}
{"label":"DATETIME","pattern":[{"LOWER":"octobre"},{"SHAPE":"dddd"}]}
{"label":"DATETIME","pattern":[{"LOWER":"novembre"},{"SHAPE":"dddd"}]}
{"label":"DATETIME","pattern":[{"LOWER":"d\u00e9cembre"},{"SHAPE":"dddd"}]}
{"label":"CIVILITY_TITLE","pattern":[{"LOWER":"mr"}]}
{"label":"CIVILITY_TITLE","pattern":[{"LOWER":"mme"}]}
{"label":"CIVILITY_TITLE","pattern":[{"LOWER":"mlle"}]}
{"label":"CIVILITY_TITLE","pattern":[{"LOWER":"monsieur"}]}
{"label":"CIVILITY_TITLE","pattern":[{"LOWER":"madame"}]}
{"label":"CIVILITY_TITLE","pattern":[{"LOWER":"mademoiselle"}]}
{"label":"CIVILITY_TITLE","pattern":[{"LOWER":"propri\u00e9taire"}]}
{"label":"CIVILITY_TITLE","pattern":[{"LOWER":"locataire"}]}
{"label":"CIVILITY_TITLE","pattern":[{"LOWER":"\u00e9tudiant"}]}
{"label":"COTE","pattern":[{"ORTH":"("},{"LOWER":"fol"},{"IS_DIGIT":true},{"LOWER":"v\u00b0","OP":"?"},{"IS_PUNCT":true},{"LOWER":"n\u00b0"},{"IS_SPACE":true},{"IS_DIGIT":true},{"ORTH":")"}]}
{"label":"COTE","pattern":[{"IS_UPPER":true,"OP":"+"},{"ORTH":"//"},{"IS_DIGIT":true},{"ORTH":"/"},{"IS_ALPHA":true},{"IS_PUNCT":true,"OP":"?"}]}
