Nom de IR,Objectif,Types d'entités,Xpath de récupération,Outil utilisé,UDs / éléments récupérés ,Post-traitement,Nombre de lignes,Nombre de paragraphes,Limites possibles pour le annotation NER EF
FRAN_IR_058292.xml,"802 UD de niveau bas ou juste au-dessus de ce dernier niveau. 
617 possèdent une indexation libre des noms de personne 
(2420 balises <persname> pour 2342 noms différents).
 44 UD de bas niveau ne sont pas du tout indexées. 
Lorsque l’indexation lieux existe, elle n’est pas à compléter 
(renvois établis vers le référentiel des lieux des AN).                                                                                                                                                     ","- Lieux
- Personnes
- Métiers
- Type d'actes
- Sociétés",//did/following-sibling::scopecontent[not(list)],"notebook jupyter
Pipeline d'extraction
Python","Ensemble des <scopecontent> (699) précédés d'un <controlaccess> cependant 99 <scopecontent> contenant
des listes ont été mis de côté du fait d'informations redondantes.","- normalisation classique (caractères nouvelles lignes,
mots vides, espaces larges);
- traduction des formes abbrégées;
- suppression des patterns EAD indésirables;
",1542,771,"- bloc conséquents contenant 
des listes de noms successifs mais qui passe à la segmentation.
- Pas d'inversion noms et prénoms"
FRAN_IR_000061.xml,"2144 UD de bas niveau. Beaucoup de noms propres 
dans did/unittitle 
(plusieurs unittitle par UD ; ceux qui sont à indexer sont le premier 
de 2, ou le 1er et le 2e sur 3). Certains des lieux 
mentionnés en intitulé sont identifiés et localisés 
dans scopecontent/note/p.
La très grande majorité des UD est datée (did/unitdate).","- Lieux
- Type d'actes
- Personnes",//did/unittitle | //did/unitdate | //scopecontent,"notebook jupyter
Pipeline d'extraction
Python","Ensemble des <scopecontent> avec les <unittitle> et les <unitdate> associés, ormis les deux premiers
<scopecontent> contenant des éléments d'introduction très généraux.","- normalisation classique (encodage, caractères nouvelles lignes,
mots vides, espaces larges);
- ponctuation minimale;
- traduction des formes abbrégées;
- suppression des patterns EAD indésirables;
- suppression manuelle du premier  <scopecontent> (=introduction)",2762,1420,RAS
FRAN_IR_050516.xml,"3218 UD en tout ; 2293 + 389 UD de bas niveau pour les phares des 
côtes de France métropolitaine + pays étrangers, colonies et DOM. 
Le classement des documents a induit une description par niveaux 
de localisation (par ex. « Alpes-Maritimes » dans un composant, 
« Cannes » dans une autre UD fille de la première). 
L’indication des lieux est dans did/unittitle et parfois dans 
scopecontent. La majorité des UD ont une date dans did/unitdate.","- Institutions
- Lieux
- Constructions
- Personnes",//unittitle | //unitdate | //scopecontent,"notebook jupyter
Pipeline d'extraction
Python","Ensemble des <scopecontent> avec les <unittitle> et les <unitdate> associés.
","- normalisation classique (encodage, caractères nouvelles lignes,
mots vides, espaces larges);
- ponctuation minimale;
- traduction des formes abbrégées;
",5486,2743,"- titre court (unittitle) peuvent échapper du 
contexte du <scopecontent> "
FRAN_IR_041253.xml,"Les actes ont été analysés de façon exhaustive pour les cotes 
MC/ET/720 à 817, de 1831 à 1862, soit 97 cartons et 6310 UD 
de bas niveau décrivant des minutes. 5126 de ces UD ont une 
indexation des personnes, 1184 non. L’indexation lieux lorsqu’elle 
existe (8335 éléments <geogname>) n’est pas à compléter (renvois 
établis vers le référentiel des lieux des AN). Les éléments <persname>
 ne renvoient à aucun référentiel (13247 balises, 8263 noms différents).
 Lorsque les UD ne sont pas indexées, l’information à indexer est dans 
did/unittitle. Les UD sont datées (did/unitdate).","- Personnes
- Lieux
- Types d'actes
- Métiers",//c/did,"notebook jupyter
Pipeline d'extraction
Python","Ensemble des <scopecontent> avec les <unittitle> et les <unitdate> associés.
","- normalisation classique (encodage, caractères nouvelles lignes,
mots vides, espaces larges);
- suppression de patterns EAD indésirables (notamment les côtes MC et RE, et lignes
comprenant une côte + une date uniquement = bruit)
- punctuation type '()' conservés",12586,6509,RAS
FRAN_IR_058836.xml,"Environ 1200 UD correspondant aux dossiers de certification ouverts par
 les établissements de santé dans une commune ou un groupe de 
communes. Les noms des communes figurent dans did/unittitle et le 
cas échéant dans scopecontent. 
Le nom du département figure dans l'UD parente, dans did/unittitle.","- Lieux
- Institutions",(//unittitle)[position()>1] | (//scopecontent)[position()> 1],"notebook jupyter
Pipeline d'extraction
Python","Ensemble des <scopecontent> avec les <unittitle> et les <unitdate> associés, ormis les deux premiers 
<scopecontent> contenant des éléments d'introduction très généraux.","- normalisation classique (encodage, caractères nouvelles lignes,
mots vides, espaces larges);
- traduction des formes abbrégées;
- suppression de patterns EAD indésirables (code démarche = bruit);
- ponctuation légèrement modifiée;",2020,1010,- noms de villes hors-contexte
FRAN_IR_000242.xml,"3824 UD de bas niveau, chacune décrivant le plus souvent un dossier 
personnel d'artiste bénéficiaire d'encouragements. Le nom de l'artiste, parfois 
accompagné de ses prénoms, figure dans did/unittitle[1], 
suivi des dates des documents.","- Personnes
- Lieux",//c/did,"notebook jupyter
Pipeline d'extraction
Python",Ensemble des  <unittitle> de 1er et 2cnd niveaux ormis les 5 premiers <c>.,"- normalisation classique (encodage, caractères nouvelles lignes,
mots vides, espaces larges);
- traduction des formes abbrégées;
- ponctuation légèrement modifiée;",7648,3848,"- liste de personnes hors-contexte
- normalisation des noms en majuscules (impact ?)"
FRAN_IR_001454.xml,"2366 UD concernent des bâtiments dans Paris intra muros, pour lesquels un 
nom de voie et les propriétaires sont mentionnés. Les 294 autres concernent 
des communes de la région parisienne. Ces informations sont dans did/unittitle. 
La très grande majorité des UD est datée (did/unitdate).","- Lieux
- Personnes",//c/did,"notebook jupyter
Pipeline d'extraction
Python",Ensemble des <unittitle>.,"- normalisation classique (encodage, caractères nouvelles lignes,
mots vides, espaces larges);
- traduction des formes abbrégées;
- ponctuation légèrement modifiée conservation des ""()"";
- suppression de patterns EAD indésirables ex. côtes Z../../. (=bruits)
",2996,2996,- invertion type rue/avenue... et nom/prénom complexe.
FRAN_IR_054129.xml,"environ 550 UD donnant de nombreux  noms de personnes ou familles concernés 
par les documents collectés (Poilus), parfois associés à des informations 
biographiques et à des noms de lieux. Données contenues dans did/unittitle et 
scopecontent, parfois dans deux UD hiérarchiquement liées.","- Personnes
- Organisations
- Lieux",(//unittitle)[position()>1] | (//scopecontent)[position()> 1],"notebook jupyter
Pipeline d'extraction
Python","Ensemble des <unittitle> et <scopecontent> reliés dans
des <c> de même niveau ormis les deux premiers 
qui constitue une introduction globale.","- normalisation classique (encodage, caractères nouvelles lignes,
mots vides, espaces larges);
- traduction des formes abbrégées;
- suppression d'encodage spéciaux (cross, breakpoint);
- ponctuation légèrement modifiée conservation des ""()"".",1082,541,- gros bloc de texte hierarchiquement liés sous la forme de liste.
FRAN_IR_057246.xml,"liste (répartie dans 105 éléments c/scopecontent/p) de 4800 dossiers individuels, 
donnant les noms, dates de naissance et le cas échéant pseudo et date de décès 
des personnes",- Personnes,(//c/scopecontent/p)[position()>8],"notebook jupyter
Pipeline d'extraction
Python","Liste des personnes dans les <p> de chaque 
<scopecontent> à l'exception des 8 premiers 
qui correspondent à une introduction du fonds.","- normalisation classique (encodage, caractères nouvelles lignes,
mots vides, espaces larges);
- traduction des formes abbrégées;
- ponctuation modifiée;
- pas d'inversion nom et prénom
",3826,,- liste de personnes isolées <p> (désembiguisation avec référentiel AN requise)
FRAN_IR_001488.xml,"dans environ 210 UD réparties en deux séries (entre-deux-guerres et après-guerre),
 description des dossiers de rapports pour chaque département. Le nom du 
département à l'époque est dans did/unittitle. La liste des rapports se trouve dans 
scopecontent ; elle contient les  noms de nombreuses communes et autres 
circonscriptions du département (et des noms d'organismes).","- Organisations
- Lieux
- Administrations",(//unittitle)[position()>1] | (//scopecontent)[position()> 1],"notebook jupyter
Pipeline d'extraction
Python","Liste des départements et liste des rapports associés entre eux = 
Récupération de l'ensemble des <unittitle> et <scopecontent>.","- normalisation classique (encodage, caractères nouvelles lignes,
mots vides, espaces larges);
- traduction des formes abbrégées;
- ponctuation conservée",408,204,- bloc importants (segmentation en phrases requises)
FRAN_IR_054605.xml,"Contient, dans les branches relatives aux services audiovisuel et photographique, 
environ 2000 UD susceptibles de mentionner les personnes rencontrées et les lieux visités 
par J. Chirac. Les UD sont datées. Les informations à indexer sont dans did/unitittle 
ou scopecontent.","- Personnes
- Organisations
- Medias
- Lieux",(//c/did/unittitle)[position()>35] | (//scopecontent)[position()>33],"notebook jupyter
Pipeline d'extraction
Python","Liste des archives audiovisuelles (titre = <unittitle> et 
description = <scopecontent>); les 30 premiers <unittitle> et <scopecontent> mis de côté
car correspondent à une introduction du fond sans 
réel impact pour la désambiguïsation des entités.","- normalisation classique (encodage, caractères nouvelles lignes,
mots vides, espaces larges);
- traduction des formes abbrégées;
- suppression des patterns indésirables (durée des documents, dates et nombres isolées);
- ponctuation légérement modifiée;
- normalisation des noms de lieux et personnes souvent tout en majuscule et avec erreur de typographie",1606,,"- Certaines erreurs de typographies ou de normalisation
 ex. SENEGAL (lieux) ou TONY BLAIR (personnes) et acronymes
(plus ou moins rectifier en post-traitement) dans l'IR empêche la bonne désambiguisation des entités."
FRAN_IR_053754.xml,"169 UD contenant, dans controlaccess, en tout 3549 éléments <persname> non associés 
à un référentiel (indexation libre), soit 3136 noms différents (très souvent des personnalités 
de haut rang françaises ou étrangères). Les UD concernées ou les UD hiérarchiquement 
supérieures fournissent les dates des documents et le nom de personnes contemporaines 
des noms indexés.","- Personnes
- Lieux
- Métiers",//c/did | //c/scopecontent,"notebook jupyter
Pipeline d'extraction
Python",Ensemble des <unittitle> et <scopecontent>.,"- suppression de patterns EAD indésirables (numéro de dossiers, cartons et cotes)
- ponctuation conservée",1910,1396,"- beaucoup de sequences (comme des dates) isolées du reste ou niveau hiérarchique auxquelles elles
 appartiennent donc sans contexte (difficile à supprimé au risque d'enlever l'information essentiel)"
FRAN_IR_001631.xml,"905 UD de bas niveau. L’objet des dossiers, quel qu’il soit (le plus souvent un nom de 
personne, parfois aussi un nom de lieu ou d’organisme ou un nom commun) est notamment
 spécifié par le premier mot en majuscules dans did/unittitle. La date est indiquée
 dans did/unittitle, sans être balisée.","- Lieux
- Personnes
- Métiers",//c/did,"notebook jupyter
Pipeline d'extraction
Python",Ensemble des deux niveaux de <unittitle>. ,"- normalisation classique (encodage, caractères nouvelles lignes,
mots vides, espaces larges);
- traduction des formes abbrégées;
- inversion nom-prénom;
- minusculisation des termes capitalisés;",1834,917,"- prénom composé abbrégée;
- nom seul parfois"
FRAN_IR_050370.xml,"735 UD de bas niveau, dont 37 seulement comportent une indexation du lieu concerné 
avec lien vers le réf. des lieux des AN. Le nom de la ville est donné dans did/unittitle, 
parfois dans une graphie ancienne.",- Lieux,(//c)[position()>2],"notebook jupyter
Pipeline d'extraction
Python","récupération des <unittitle> contenant le nom des villes et 
parfois récuparation du <scopecontent> associé.","- normalisation classique (encodage, caractères nouvelles lignes,
mots vides, espaces larges);
- suppression de patterns EAD indésirables (côtes BB/...)
- ponctuation légèrement modifiée.",2524,1263,- quelques villes ou descriptions isolées 
FRAN_IR_055325.xml,"Environ 670 UD de bas niveau correspondant dans leur très grande majorité à des séries de 
photos prises dans un groupe de communes. Les noms extrêmes des communes sont
 donnés dans did/unittitle. Ces UD sont regroupées par département ; le nom du 
département figure dans did/unittitle de l'UD parente.",- Lieux,//c/did,"notebook jupyter
Pipeline d'extraction
Python","récupération des communes et des départements situés
dans tous les <did> .","- normalisation classique (encodage, caractères nouvelles lignes,
mots vides, espaces larges);
- suppression de patterns EAD indésirables (côte PH)
- ponctuation modifiée",1530,765,RAS (liste villes)
FRAN_IR_058341.xml,"97 unités de description pour 1601 photographies relatives à la Haute-Savoie. 
Répartition des indications de localisation entre 4 branches correspondant à autant 
de périmètres géographiques autour d'un cours d'eau, contenant des séries 
(par commune, forêt ou branche du cours d'eau), elles-mêmes décrites via 
un intitulé et c/scopecontent (beaucoup de noms propres de lieux naturels, 
constructions telles que barrages ou lieux-dits).",- Lieux ,(//did)[position()>1] | (//scopecontent)[position()>1],"notebook jupyter
Pipeline d'extraction
Python","récupération du périmètre géographique <unittitle> (localisation) et du bas-niveau d'indications topographiques 
correspondant (<scopecontent>/<p>). Le premier <did> mis de côté car constituant une forme d'introduction.
 En revanche pas de récupération des noms de photographes pour concentrer les informations de type géo.","- normalisation classique (encodage, caractères nouvelles lignes,
mots vides, espaces larges);
- suppression de patterns EAD indésirables (côtes et numéros de clichés)",2318,1178,"Nombreuses répétitions de noms géographiques dans les <scopecontent/p> (impact sur la correction 
manuelle des annotations ?)"
FRAN_IR_050185.xml,"environ 5660 UD contenant, dans did/unittitle et scopecontent, de nombreux noms de lieux 
ainsi que des noms d'auteurs des documents. Ces UD sont réparties en 59 séries
 (une par département) ; le nom du département, donné dans l'UD correspondant à la série, 
est le seul à avoir été indexé. Dans chaque série, les UD sont organisées par type de 
document ou type d'objet représenté. Les indications utiles pour identifier ou localiser les
 lieux sont donc réparties dans 5 niveaux hiérarchiques. 1313 UD contiennent dans
did/unitdate la date du ou des documents décrits.","- Lieux
- Personnes
- Batiments",//unittitle | //scopecontent,"notebook jupyter
Pipeline d'extraction
Python",Ensemble des <unittitle> et <scopecontent>.,"- normalisation classique (encodage, caractères nouvelles lignes,
mots vides, espaces larges);
- ponctuation légèrement modifiée.",6008,3180,"- mutualisation entre <unitititle> et <scopecontent> pas forcémment hommogène;
- nombreuses abbréviations non étayées (dico non fonctionnel)"
